…
We can use `purrr::map_dfr()`–*map* the `read_textgrid` function over
the `paths` and combine the dataframes (`_dfr`)—to read all these
textgrids into R. But note that this way loses the speaker information.

``` r
library(purrr)

map_dfr(paths, read_textgrid)
#> # A tibble: 150 × 10
#>    file           tier_num tier_name tier_type    tier_xmin tier_xmax  xmin
#>    <chr>             <int> <chr>     <chr>            <dbl>     <dbl> <dbl>
#>  1 s2T01.TextGrid        1 words     IntervalTier         0      1.35 0    
#>  2 s2T01.TextGrid        1 words     IntervalTier         0      1.35 0.297
#>  3 s2T01.TextGrid        1 words     IntervalTier         0      1.35 0.522
#>  4 s2T01.TextGrid        1 words     IntervalTier         0      1.35 0.972
#>  5 s2T01.TextGrid        2 phones    IntervalTier         0      1.35 0    
#>  6 s2T01.TextGrid        2 phones    IntervalTier         0      1.35 0.297
#>  7 s2T01.TextGrid        2 phones    IntervalTier         0      1.35 0.36 
#>  8 s2T01.TextGrid        2 phones    IntervalTier         0      1.35 0.495
#>  9 s2T01.TextGrid        2 phones    IntervalTier         0      1.35 0.522
#> 10 s2T01.TextGrid        2 phones    IntervalTier         0      1.35 0.621
#>     xmax text    annotation_num
#>    <dbl> <chr>            <int>
#>  1 0.297 ""                   1
#>  2 0.522 "bird"               2
#>  3 0.972 "house"              3
#>  4 1.35  ""                   4
#>  5 0.297 "sil"                1
#>  6 0.36  "B"                  2
#>  7 0.495 "ER1"                3
#>  8 0.522 "D"                  4
#>  9 0.621 "HH"                 5
#> 10 0.783 "AW1"                6
#> # ℹ 140 more rows
```
…
# This tells read_textgrid() to set the file column to the full path
data <- map2_dfr(paths, paths, read_textgrid) |> 
  mutate(
    # basename() removes the folder part from a path, 
    # dirname() removes the file part from a path
    speaker = basename(dirname(file)),
    file = basename(file),
  ) |> 
  select(
    speaker, everything()
  )

data
#> # A tibble: 150 × 11
#>    speaker    file           tier_num tier_name tier_type    tier_xmin tier_xmax
#>    <chr>      <chr>             <int> <chr>     <chr>            <dbl>     <dbl>
#>  1 speaker001 s2T01.TextGrid        1 words     IntervalTier         0      1.35
#>  2 speaker001 s2T01.TextGrid        1 words     IntervalTier         0      1.35
#>  3 speaker001 s2T01.TextGrid        1 words     IntervalTier         0      1.35
#>  4 speaker001 s2T01.TextGrid        1 words     IntervalTier         0      1.35
#>  5 speaker001 s2T01.TextGrid        2 phones    IntervalTier         0      1.35
#>  6 speaker001 s2T01.TextGrid        2 phones    IntervalTier         0      1.35
#>  7 speaker001 s2T01.TextGrid        2 phones    IntervalTier         0      1.35
#>  8 speaker001 s2T01.TextGrid        2 phones    IntervalTier         0      1.35
#>  9 speaker001 s2T01.TextGrid        2 phones    IntervalTier         0      1.35
#> 10 speaker001 s2T01.TextGrid        2 phones    IntervalTier         0      1.35
#>     xmin  xmax text    annotation_num
#>    <dbl> <dbl> <chr>            <int>
#>  1 0     0.297 ""                   1
#>  2 0.297 0.522 "bird"               2
#>  3 0.522 0.972 "house"              3
#>  4 0.972 1.35  ""                   4
#>  5 0     0.297 "sil"                1
#>  6 0.297 0.36  "B"                  2
#>  7 0.36  0.495 "ER1"                3
#>  8 0.495 0.522 "D"                  4
#>  9 0.522 0.621 "HH"                 5
#> 10 0.621 0.783 "AW1"                6
#> # ℹ 140 more rows
```
…
# promote the nested dataframes into the main dataframe
tidyr::unnest(data_nested, "data")
#> # A tibble: 150 × 11
#>    speaker    file  tier_num tier_name tier_type tier_xmin tier_xmax  xmin  xmax
#>    <chr>      <chr>    <int> <chr>     <chr>         <dbl>     <dbl> <dbl> <dbl>
#>  1 speaker001 s2T0…        1 words     Interval…         0      1.35 0     0.297
#>  2 speaker001 s2T0…        1 words     Interval…         0      1.35 0.297 0.522
#>  3 speaker001 s2T0…        1 words     Interval…         0      1.35 0.522 0.972
#>  4 speaker001 s2T0…        1 words     Interval…         0      1.35 0.972 1.35 
#>  5 speaker001 s2T0…        2 phones    Interval…         0      1.35 0     0.297
#>  6 speaker001 s2T0…        2 phones    Interval…         0      1.35 0.297 0.36 
#>  7 speaker001 s2T0…        2 phones    Interval…         0      1.35 0.36  0.495
#>  8 speaker001 s2T0…        2 phones    Interval…         0      1.35 0.495 0.522
#>  9 speaker001 s2T0…        2 phones    Interval…         0      1.35 0.522 0.621
#> 10 speaker001 s2T0…        2 phones    Interval…         0      1.35 0.621 0.783
#> # ℹ 140 more rows
#> # ℹ 2 more variables: text <chr>, annotation_num <int>
```
…
``` r
data_wide <- pivot_textgrid_tiers(
  data, 
  tiers = c("words", "phones"), 
  join_cols = c("speaker", "file")
)

data_wide
#> # A tibble: 108 × 18
#>    speaker    file   words words_xmin words_xmax words_xmid words_annotation_num
#>    <chr>      <chr>  <chr>      <dbl>      <dbl>      <dbl>                <int>
#>  1 speaker001 s2T01… ""         0          0.297      0.149                    1
#>  2 speaker001 s2T01… "bir…      0.297      0.522      0.410                    2
#>  3 speaker001 s2T01… "bir…      0.297      0.522      0.410                    2
#>  4 speaker001 s2T01… "bir…      0.297      0.522      0.410                    2
#>  5 speaker001 s2T01… "hou…      0.522      0.972      0.747                    3
#>  6 speaker001 s2T01… "hou…      0.522      0.972      0.747                    3
#>  7 speaker001 s2T01… "hou…      0.522      0.972      0.747                    3
#>  8 speaker001 s2T01… ""         0.972      1.35       1.16                     4
#>  9 speaker001 s2T01… ""         0.972      1.35       1.16                     4
#> 10 speaker001 s2T02… ""         0          0.297      0.149                    1
#> # ℹ 98 more rows
#> # ℹ 11 more variables: words_tier_num <int>, words_tier_type <chr>,
#> #   tier_xmin <dbl>, tier_xmax <dbl>, phones <chr>, phones_xmin <dbl>,
#> #   phones_xmax <dbl>, phones_xmid <dbl>, phones_annotation_num <int>,
#> #   phones_tier_num <int>, phones_tier_type <chr>

# more clearly,
data_wide |> 
  select(
    speaker, file, words, phones, 
    words_xmin, words_xmax, phones_xmin, phones_xmax
  )
#> # A tibble: 108 × 8
#>    speaker    file    words phones words_xmin words_xmax phones_xmin phones_xmax
#>    <chr>      <chr>   <chr> <chr>       <dbl>      <dbl>       <dbl>       <dbl>
#>  1 speaker001 s2T01.… ""    "sil"       0          0.297       0           0.297
#>  2 speaker001 s2T01.… "bir… "B"         0.297      0.522       0.297       0.36 
#>  3 speaker001 s2T01.… "bir… "ER1"       0.297      0.522       0.36        0.495
#>  4 speaker001 s2T01.… "bir… "D"         0.297      0.522       0.495       0.522
#>  5 speaker001 s2T01.… "hou… "HH"        0.522      0.972       0.522       0.621
#>  6 speaker001 s2T01.… "hou… "AW1"       0.522      0.972       0.621       0.783
#>  7 speaker001 s2T01.… "hou… "S"         0.522      0.972       0.783       0.972
#>  8 speaker001 s2T01.… ""    "sp"        0.972      1.35        0.972       1.33 
#>  9 speaker001 s2T01.… ""    ""          0.972      1.35        1.33        1.35 
#> 10 speaker001 s2T02.… ""    "sil"       0          0.297       0           0.297
#> # ℹ 98 more rows
```
…
This function also works on a single `tiers` value. In this case, the
function returns just the intervals in that tier with the columns
renamed and prefixed.

``` r
data |> 
  pivot_textgrid_tiers(
    tiers = "words", 
    join_cols = c("speaker", "file")
  )
#> # A tibble: 42 × 11
#>    speaker    file   words words_xmin words_xmax words_xmid words_annotation_num
#>    <chr>      <chr>  <chr>      <dbl>      <dbl>      <dbl>                <int>
#>  1 speaker001 s2T01… ""         0          0.297      0.149                    1
#>  2 speaker001 s2T01… "bir…      0.297      0.522      0.410                    2
#>  3 speaker001 s2T01… "hou…      0.522      0.972      0.747                    3
#>  4 speaker001 s2T01… ""         0.972      1.35       1.16                     4
#>  5 speaker001 s2T02… ""         0          0.297      0.149                    1
#>  6 speaker001 s2T02… "cow…      0.297      0.702      0.500                    2
#>  7 speaker001 s2T02… "boo…      0.702      1.17       0.936                    3
#>  8 speaker001 s2T02… ""         1.17       1.59       1.38                     4
#>  9 speaker001 s2T03… ""         0          0.369      0.184                    1
#> 10 speaker001 s2T03… "hug"      0.369      0.657      0.513                    2
#> # ℹ 32 more rows
#> # ℹ 4 more variables: words_tier_num <int>, words_tier_type <chr>,
#> #   tier_xmin <dbl>, tier_xmax <dbl>
```
…
